<?xml version="1.0" encoding="utf-8"?>
<!-- Generator: Adobe Illustrator 23.0.4, SVG Export Plug-In . SVG Version: 6.00 Build 0)  -->
<svg version="1.1" id="Layer_1" xmlns="http://www.w3.org/2000/svg" xmlns:xlink="http://www.w3.org/1999/xlink" x="0px" y="0px"
	 viewBox="0 0 132 134.6" style="enable-background:new 0 0 132 134.6;" xml:space="preserve">
<style type="text/css">
	.st0{clip-path:url(#SVGID_2_);fill:#FFFFFF;}
	.st1{clip-path:url(#SVGID_2_);fill:#231F20;}
	.st2{fill:#FFFFFF;}
	.st3{clip-path:url(#SVGID_4_);fill:#FFFFFF;}
	.st4{clip-path:url(#SVGID_4_);fill:#00A7FF;}
	.st5{clip-path:url(#SVGID_6_);fill:#231F20;}
	.st6{clip-path:url(#SVGID_6_);fill:#00A7FF;}
	.st7{clip-path:url(#SVGID_8_);fill:#FFFFFF;}
	.st8{fill:#00A7FF;}
	.st9{fill:#231F20;}
	.st10{clip-path:url(#SVGID_10_);fill:#231F20;}
	.st11{clip-path:url(#SVGID_12_);fill:#FFFFFF;}
	.st12{clip-path:url(#SVGID_14_);fill:#FFFFFF;}
</style>
<g>
	<g>
		<defs>
			<rect id="SVGID_1_" width="132" height="134.6"/>
		</defs>
		<clipPath id="SVGID_2_">
			<use xlink:href="#SVGID_1_"  style="overflow:visible;"/>
		</clipPath>
		<path class="st0" d="M117.1,134.6H14.9c-8.2,0-14.9-6.8-14.9-15.2V15.2C0,6.8,6.7,0,14.9,0h102.2c8.2,0,14.9,6.8,14.9,15.2v104.2
			C132,127.8,125.3,134.6,117.1,134.6"/>
		<path class="st1" d="M117.1,134.6H14.9c-8.2,0-14.9-6.8-14.9-15.2V15.2C0,6.8,6.7,0,14.9,0h102.2c8.2,0,14.9,6.8,14.9,15.2v104.2
			C132,127.8,125.3,134.6,117.1,134.6"/>
	</g>
	<rect x="76.6" y="83.8" class="st2" width="38.2" height="23.5"/>
	<g>
		<defs>
			<rect id="SVGID_3_" width="132" height="134.6"/>
		</defs>
		<clipPath id="SVGID_4_">
			<use xlink:href="#SVGID_3_"  style="overflow:visible;"/>
		</clipPath>
		<path class="st3" d="M106.3,58.4c0.1,0,0.3-0.1,0.3-0.3l0-28.5c0-0.2-0.1-0.3-0.3-0.3H84.4c-0.1,0-0.2,0.1-0.2,0.3l0,28.5
			c0,0.2,0.1,0.3,0.3,0.3H106.3z"/>
		<path class="st4" d="M117.8,110.4h-16.5v3.8h10.6v2.8H79.5v-2.8h10.6v-3.8H73.7V80.8h44.2V110.4z M62.6,47.1
			c-5,3.6-11.5,3.3-16.1-0.1L21.1,65.2l-5.3-7.8l25.4-18.2c-1.5-5.7,0.5-12,5.5-15.6c4.8-3.4,10.9-3.4,15.5-0.4L51.3,31l1,6l5.2,3.1
			l10.8-7.7C69.4,37.8,67.3,43.7,62.6,47.1 M60.8,95.4c-5.5-5.5-13.1-8.9-21.4-8.9c-8.2,0-15.6,3.3-21.1,8.7l-2.7-3.3
			c6.2-6,14.6-9.7,23.9-9.7c9.4,0,17.8,3.8,24.1,9.9L60.8,95.4z M55.4,103.5c-4.1-4.3-9.7-6.9-16-6.9c-6.2,0-11.7,2.5-15.8,6.6
			l-3-3.5c4.8-4.8,11.4-7.7,18.7-7.7c7.4,0,14.1,3.1,19,8L55.4,103.5z M49.8,112c-2.5-3-6.3-4.9-10.5-4.9c-4,0-7.6,1.8-10.2,4.6
			l-2.6-3.1c3.2-3.4,7.7-5.5,12.8-5.5c5.2,0,9.8,2.2,13.1,5.8L49.8,112z M81.4,24.1c0-2,1.6-3.6,3.5-3.6h20.9c1.9,0,3.5,1.6,3.5,3.6
			l0,40.1c0,2-1.6,3.6-3.5,3.6l-20.9,0c-1.9,0-3.5-1.6-3.5-3.6L81.4,24.1z M117.1,7.1H14.9c-4.4,0-7.9,3.6-7.9,8.1v104.2
			c0,4.5,3.6,8.1,7.9,8.1h102.2c4.4,0,7.9-3.6,7.9-8.1V15.2C125,10.7,121.5,7.1,117.1,7.1"/>
	</g>
</g>
</svg>
